<?xml version="1.0" encoding="UTF-8" standalone="no"?>
<svg
   xmlns:dc="http://purl.org/dc/elements/1.1/"
   xmlns:cc="http://creativecommons.org/ns#"
   xmlns:rdf="http://www.w3.org/1999/02/22-rdf-syntax-ns#"
   xmlns:svg="http://www.w3.org/2000/svg"
   xmlns="http://www.w3.org/2000/svg"
   width="22.766666mm"
   height="22.766666mm"
   viewBox="0 0 22.766666 22.766666"
   version="1.1"
   id="svg8">
  <defs
     id="defs2" />
  <metadata
     id="metadata5">
    <rdf:RDF>
      <cc:Work
         rdf:about="">
        <dc:format>image/svg+xml</dc:format>
        <dc:type
           rdf:resource="http://purl.org/dc/dcmitype/StillImage" />
        <dc:title></dc:title>
      </cc:Work>
    </rdf:RDF>
  </metadata>
  <g
     id="layer1"
     transform="translate(275.96668,-30.949999)">
    <circle
       style="fill:#000000;stroke:#000000;stroke-width:1.6;stroke-linecap:round;stroke-linejoin:round;paint-order:stroke fill markers"
       id="path835"
       cx="-251.35417"
       cy="42.333332"
       r="10.583333" />
    <circle
       r="10.583333"
       cy="42.333332"
       cx="-277.8125"
       id="circle837"
       style="fill:#000000;stroke:#000000;stroke-width:1.6;stroke-linecap:round;stroke-linejoin:round;paint-order:stroke fill markers" />
  </g>
</svg>
